\relax 
\providecommand\hyper@newdestlabel[2]{}
\providecommand\HyperFirstAtBeginDocument{\AtBeginDocument}
\HyperFirstAtBeginDocument{\ifx\hyper@anchor\@undefined
\global\let\oldcontentsline\contentsline
\gdef\contentsline#1#2#3#4{\oldcontentsline{#1}{#2}{#3}}
\global\let\oldnewlabel\newlabel
\gdef\newlabel#1#2{\newlabelxx{#1}#2}
\gdef\newlabelxx#1#2#3#4#5#6{\oldnewlabel{#1}{{#2}{#3}}}
\AtEndDocument{\ifx\hyper@anchor\@undefined
\let\contentsline\oldcontentsline
\let\newlabel\oldnewlabel
\fi}
\fi}
\global\let\hyper@last\relax 
\gdef\HyperFirstAtBeginDocument#1{#1}
\providecommand\HyField@AuxAddToFields[1]{}
\providecommand\HyField@AuxAddToCoFields[2]{}
\select@language{english}
\@writefile{toc}{\select@language{english}}
\@writefile{lof}{\select@language{english}}
\@writefile{lot}{\select@language{english}}
\@writefile{toc}{\contentsline {section}{\numberline {1}Statement of Completeness}{1}{section.1}}
\newlabel{sec:statement}{{1}{1}{Statement of Completeness}{section.1}{}}
\@writefile{toc}{\contentsline {section}{\numberline {2}Team Information}{1}{section.2}}
\@writefile{toc}{\contentsline {section}{\numberline {3}Statement of Contributions}{1}{section.3}}
\@writefile{toc}{\contentsline {section}{\numberline {4}Description of Mine-Yard Data Structure}{2}{section.4}}
\@writefile{toc}{\contentsline {section}{\numberline {5}Explanation of Leader-board Data Structure}{2}{section.5}}
\@writefile{toc}{\contentsline {section}{\numberline {6}Critical Section Problem}{3}{section.6}}
\@writefile{toc}{\contentsline {section}{\numberline {7}Thread Pool Creation and Management}{3}{section.7}}
\@writefile{toc}{\contentsline {section}{\numberline {8}Compilation and Running of the Program}{4}{section.8}}
\@writefile{toc}{\contentsline {section}{\numberline {9}Bibliography}{4}{section.9}}
